\relax 
\newlabel{eq:errf}{{2}{1}}
\@writefile{toc}{\contentsline {section}{\numberline {1}The name 'error function'}{1}}
\newlabel{fig:errf}{{}{2}}
\@writefile{lof}{\contentsline {figure}{\numberline {1}{\ignorespaces Error Function}}{2}}
