\relax 
\select@language{english}
\@writefile{toc}{\select@language{english}}
\@writefile{lof}{\select@language{english}}
\@writefile{lot}{\select@language{english}}
\@writefile{toc}{\contentsline {section}{\numberline {1}The Problem}{1}}
\newlabel{eq:rules}{{2}{1}}
\@writefile{toc}{\contentsline {section}{\numberline {2}My Solution}{1}}
\@writefile{lof}{\contentsline {figure}{\numberline {1}{\ignorespaces The squareroot function, my function with the one from "math.h".}}{2}}
\newlabel{fig:sqrt}{{1}{2}}
\@writefile{toc}{\contentsline {section}{\numberline {3}Question Number 10, Lecture 5}{2}}
