0 	1
0.2 	0.900665
0.4 	0.805291
0.6 	0.717679
0.8 	0.641322
1 	0.579264
1.2 	0.53398
1.4 	0.507275
1.6 	0.500213
1.8 	0.513076
2 	0.545351
2.2 	0.595752
2.4 	0.662268
2.6 	0.742249
2.8 	0.832506
3 	0.92944
3.2 	1.02919
3.4 	1.12777
3.6 	1.22126
3.8 	1.30593
4 	1.3784
4.2 	1.43579
4.4 	1.4758
4.6 	1.49685
4.8 	1.49808
5 	1.47946
5.2 	1.44173
5.4 	1.38638
5.6 	1.31563
5.8 	1.2323
6 	1.13971
6.2 	1.04154
6.4 	0.941725
6.6 	0.844229
6.8 	0.752943
7 	0.671506
7.2 	0.603165
7.4 	0.550645
7.6 	0.516039
7.8 	0.500727
8 	0.50532
8.2 	0.529634
8.4 	0.572699
8.6 	0.6328
8.8 	0.707541
9 	0.79394
9.2 	0.888555
9.4 	0.987612
9.6 	1.08716
9.8 	1.18324
10 	1.27201
10.2 	1.34994
10.4 	1.41391
10.6 	1.46139
10.8 	1.49047
11 	1.5
11.2 	1.48959
11.4 	1.45967
11.6 	1.41142
11.8 	1.34676
12 	1.26829
12.2 	1.17912
12.4 	1.0828
12.6 	0.983189
12.8 	0.884245
13 	0.789916
13.2 	0.703962
13.4 	0.629811
13.6 	0.570418
13.8 	0.52815
14 	0.504694
14.2 	0.500985
14.4 	0.517169
14.6 	0.552602
14.8 	0.605872
15 	0.674854
15.2 	0.756799
15.4 	0.84844
15.6 	0.946123
15.8 	1.04595
16 	1.14395
16.2 	1.23621
16.4 	1.31905
16.6 	1.38918
16.8 	1.44379
17 	1.4807
17.2 	1.49845
17.4 	1.49633
17.6 	1.47442
17.8 	1.4336
18 	1.3755
18.2 	1.30242
18.4 	1.21728
18.6 	1.12349
18.8 	1.02477
19 	0.925061
19.2 	0.828342
19.4 	0.738466
19.6 	0.659017
19.8 	0.593161
20 	0.543525
20.2 	0.512087
20.4 	0.500101
20.6 	0.508044
20.8 	0.535599
21 	0.581669
21.2 	0.644417
21.4 	0.72134
21.6 	0.809373
21.8 	0.905006
22 	1.00443
22.2 	1.10367
22.4 	1.19878
22.6 	1.28596
22.8 	1.36175
23 	1.42311
23.2 	1.46761
23.4 	1.49346
23.6 	1.49964
23.8 	1.4859
24 	1.45279
24.2 	1.40163
24.4 	1.33446
24.6 	1.25395
24.8 	1.16332
25 	1.06618
25.2 	0.966396
25.4 	0.867955
25.6 	0.774779
25.8 	0.690581
26 	0.618718
26.2 	0.562056
26.4 	0.522854
26.6 	0.502674
26.8 	0.502321
27 	0.521808
27.2 	0.56036
27.4 	0.616438
27.6 	0.687808
27.8 	0.771625
28 	0.864545
28.2 	0.962866
28.4 	1.06267
28.6 	1.15997
28.8 	1.2509
29 	1.33182
29.2 	1.39951
29.4 	1.45128
29.6 	1.48506
29.8 	1.4995
30 	1.49402
30.2 	1.46885
30.4 	1.42499
30.6 	1.36418
30.8 	1.28886
31 	1.20202
31.2 	1.10713
31.4 	1.00796
31.6 	0.908482
31.8 	0.812649
32 	0.724285
32.2 	0.646913
32.4 	0.583617
32.6 	0.536921
32.8 	0.508687
33 	0.500039
33.2 	0.511324
33.4 	0.542091
33.6 	0.591113
33.8 	0.656436
34 	0.735455
34.2 	0.825022
34.4 	0.921564
34.6 	1.02123
34.8 	1.12006
35 	1.21409
35.2 	1.29959
35.4 	1.37315
35.6 	1.43183
35.8 	1.4733
36 	1.49589
36.2 	1.49872
36.4 	1.48167
36.6 	1.44541
36.8 	1.39139
37 	1.32177
37.2 	1.23933
37.4 	1.14734
37.6 	1.04948
37.8 	0.949642
38 	0.851815
38.2 	0.759896
38.4 	0.677549
38.6 	0.608057
38.8 	0.554191
39 	0.518097
39.2 	0.501216
39.4 	0.504219
39.6 	0.526988
39.8 	0.568614
40 	0.627439
40.2 	0.701116
40.4 	0.786708
40.6 	0.880804
40.8 	0.979652
41 	1.07931
41.2 	1.17581
41.4 	1.2653
41.6 	1.34421
41.8 	1.4094
42 	1.45827
42.2 	1.48886
42.4 	1.49997
42.6 	1.49115
42.8 	1.46275
43 	1.41589
43.2 	1.35246
43.4 	1.27498
43.6 	1.18653
43.8 	1.09065
44 	0.99115
44.2 	0.892006
44.4 	0.797167
44.6 	0.710415
44.8 	0.635208
45 	0.574543
45.2 	0.530841
45.4 	0.505842
45.6 	0.500543
45.8 	0.515157
46 	0.549099
46.2 	0.601018
46.4 	0.668843
46.6 	0.74987
46.8 	0.840869
47 	0.938212
47.2 	1.03802
47.4 	1.13631
47.6 	1.22916
47.8 	1.31289
48 	1.38413
48.2 	1.44006
48.4 	1.47845
48.6 	1.49777
48.8 	1.49724
49 	1.47688
49.2 	1.43752
49.4 	1.38071
49.6 	1.30872
49.8 	1.22443
50 	1.13119
50.2 	1.03272
50.4 	0.932944
50.6 	0.835842
50.8 	0.745284
51 	0.664881
51.2 	0.597839
51.4 	0.546829
51.6 	0.513885
51.8 	0.500322
52 	0.506679
52.2 	0.532703
52.4 	0.577357
52.6 	0.63886
52.8 	0.714761
53 	0.802033
53.2 	0.897198
53.4 	0.996461
53.6 	1.09587
53.8 	1.19145
54 	1.2794
54.2 	1.35621
54.4 	1.41882
54.6 	1.46473
54.8 	1.49212
55 	1.49989
55.2 	1.48772
55.4 	1.45612
55.6 	1.40633
55.8 	1.34034
56 	1.26078
56.2 	1.17083
56.4 	1.07406
56.6 	0.974346
56.8 	0.875652
57 	0.781915
57.2 	0.696873
57.4 	0.623915
57.6 	0.565951
57.8 	0.525291
58 	0.503556
58.2 	0.501612
58.4 	0.519538
58.6 	0.556618
58.8 	0.611375
59 	0.681625
59.2 	0.764567
59.4 	0.856895
59.6 	0.954929
59.8 	1.05476
60 	1.15241
60.2 	1.24398
60.4 	1.32582
60.6 	1.39468
60.8 	1.4478
61 	1.48307
61.2 	1.49908
61.4 	1.49519
61.6 	1.47156
61.8 	1.42913
62 	1.3696
62.2 	1.29533
62.4 	1.20928
62.6 	1.11489
62.8 	1.01593
63 	0.916322
63.2 	0.820055
63.4 	0.730961
63.6 	0.652593
63.8 	0.588075
64 	0.539979
64.2 	0.510223
64.4 	0.499993
64.6 	0.509696
64.8 	0.538946
65 	0.586577
65.2 	0.65069
65.4 	0.728729
65.6 	0.817582
65.8 	0.913708
66 	1.01327
66.2 	1.11231
66.4 	1.20687
66.6 	1.29318
66.8 	1.36781
67 	1.42777
67.2 	1.47067
67.4 	1.49482
67.6 	1.49923
67.8 	1.48375
68 	1.44897
68.2 	1.3963
68.4 	1.32783
68.6 	1.24629
68.8 	1.15493
69 	1.0574
69.2 	0.957571
69.4 	0.859438
69.6 	0.76691
69.8 	0.683673
70 	0.613048
70.2 	0.557849
70.4 	0.520277
70.6 	0.501831
70.8 	0.503245
71 	0.524463
71.2 	0.564639
71.4 	0.622171
71.6 	0.694767
71.8 	0.779531
72 	0.873084
72.2 	0.971697
72.4 	1.07144
72.6 	1.16833
72.8 	1.25852
73 	1.33839
73.2 	1.40478
73.4 	1.45503
73.6 	1.48713
73.8 	1.49982
74 	1.49258
74.2 	1.46571
74.4 	1.42026
74.6 	1.35807
74.8 	1.2816
75 	1.1939
75.2 	1.09847
75.4 	0.999114
75.6 	0.899795
75.8 	0.80447
76 	0.716941
76.2 	0.640697
76.4 	0.578777
76.6 	0.53365
76.8 	0.507114
77 	0.500229
77.2 	0.513268
77.4 	0.545711
77.6 	0.596265
77.8 	0.662915
78 	0.743004
78.2 	0.833338
78.4 	0.930316
78.6 	1.03007
78.8 	1.12863
79 	1.22206
79.2 	1.30664
79.4 	1.37899
79.6 	1.43623
79.8 	1.47608
80 	1.49696
80.2 	1.49802
80.4 	1.47922
80.6 	1.44132
80.8 	1.38583
81 	1.31495
81.2 	1.23152
81.4 	1.13886
81.6 	1.04066
81.8 	0.940844
82 	0.843384
82.2 	0.752167
82.4 	0.670831
82.6 	0.602618
82.8 	0.550247
83 	0.515807
83.2 	0.500669
83.4 	0.505439
83.6 	0.529925
83.8 	0.573151
84 	0.633395
84.2 	0.708254
84.4 	0.794744
84.6 	0.889416
84.8 	0.988498
85 	1.08804
85.2 	1.18407
85.4 	1.27276
85.6 	1.35058
85.8 	1.41442
86 	1.46174
86.2 	1.49065
86.4 	1.5
86.6 	1.48942
86.8 	1.45933
87 	1.41092
87.2 	1.34613
87.4 	1.26754
87.6 	1.17829
87.8 	1.08193
88 	0.982302
88.2 	0.88338
88.4 	0.789107
88.6 	0.703242
88.8 	0.629208
89 	0.569955
89.2 	0.527848
89.4 	0.504563
89.6 	0.50103
89.8 	0.51739
90 	0.552989
90.2 	0.60641
90.4 	0.675521
90.6 	0.757569
90.8 	0.849282
91 	0.947003
91.2 	1.04684
91.4 	1.1448
91.6 	1.237
91.8 	1.31974
92 	1.38974
92.2 	1.4442
92.4 	1.48095
92.6 	1.49853
92.8 	1.49623
93 	1.47415
93.2 	1.43317
93.4 	1.37492
93.6 	1.30172
93.8 	1.21649
94 	1.12263
94.2 	1.02388
94.4 	0.924183
94.6 	0.827506
94.8 	0.737705
95 	0.658361
95.2 	0.592638
95.4 	0.543154
95.6 	0.511883
95.8 	0.500073
96 	0.508192
96.2 	0.535919
96.4 	0.582147
96.6 	0.645033
96.8 	0.722071
97 	0.810189
97.2 	0.905874
97.4 	1.00531
97.6 	1.10454
97.8 	1.1996
98 	1.2867
98.2 	1.36237
98.4 	1.42359
98.6 	1.46793
98.8 	1.49361
99 	1.49962
99.2 	1.4857
99.4 	1.45243
99.6 	1.40111
99.8 	1.33381
100 	1.25319
100.2 	1.16248
100.4 	1.0653
100.6 	0.965511
100.8 	0.867098
101 	0.773983
101.2 	0.689878
101.4 	0.618137
101.6 	0.56162
101.8 	0.522579
102 	0.502572
102.2 	0.502396
102.4 	0.522058
102.6 	0.560773
102.8 	0.616999
103 	0.688495
103.2 	0.772409
103.4 	0.865396
103.6 	0.96375
103.8 	1.06355
104 	1.16081
104.2 	1.25167
104.4 	1.33249
104.6 	1.40005
104.8 	1.45167
105 	1.48528
105.2 	1.49955
105.4 	1.49389
105.6 	1.46855
105.8 	1.42453
106 	1.36358
106.2 	1.28814
106.4 	1.20121
106.6 	1.10626
106.8 	1.00708
107 	0.907609
107.2 	0.811823
107.4 	0.72354
107.6 	0.646278
107.8 	0.583118
108 	0.536577
108.2 	0.508512
108.4 	0.500041
108.6 	0.511502
108.8 	0.542437
109 	0.591615
109.2 	0.657073
109.4 	0.736202
109.6 	0.825849
109.8 	0.922438
110 	1.02212
110.2 	1.12092
110.4 	1.2149
110.6 	1.30031
110.8 	1.37375
111 	1.43229
111.2 	1.47359
111.4 	1.49602
111.6 	1.49867
111.8 	1.48144
112 	1.44501
112.2 	1.39085
112.4 	1.3211
112.6 	1.23855
112.8 	1.14649
113 	1.0486
113.2 	0.948759
113.4 	0.850965
113.6 	0.759113
113.8 	0.676865
114 	0.607499
114.2 	0.55378
114.4 	0.517851
114.6 	0.501144
114.8 	0.504324
115 	0.527266
115.2 	0.569054
115.4 	0.628022
115.6 	0.70182
115.8 	0.787506
116 	0.881663
116.2 	0.980538
116.4 	1.08019
116.6 	1.17664
116.8 	1.26605
117 	1.34486
117.2 	1.40992
117.4 	1.45863
117.6 	1.48906
117.8 	1.49999
118 	1.49099
118.2 	1.46242
118.4 	1.41541
118.6 	1.35184
118.8 	1.27424
119 	1.18571
119.2 	1.08978
119.4 	0.990263
119.6 	0.891138
119.8 	0.796353
120 	0.709687
120.2 	0.634594
120.4 	0.574069
120.6 	0.530525
120.8 	0.505697
121 	0.500575
121.2 	0.515364
121.4 	0.549474
121.6 	0.601544
121.8 	0.6695
122 	0.750632
122.2 	0.841706
122.4 	0.93909
122.6 	1.0389
122.8 	1.13716
123 	1.22996
123.2 	1.31358
123.4 	1.38471
123.6 	1.44049
123.8 	1.47872
124 	1.49786
124.2 	1.49715
124.4 	1.47663
124.6 	1.4371
124.8 	1.38014
125 	1.30803
125.2 	1.22364
125.4 	1.13034
125.6 	1.03184
125.8 	0.932064
126 	0.835001
126.2 	0.744516
126.4 	0.664217
126.6 	0.597304
126.8 	0.546445
127 	0.513668
127.2 	0.500279
127.4 	0.506813
127.6 	0.533009
127.8 	0.577822
128 	0.639466
128.2 	0.715483
128.4 	0.802843
128.6 	0.898064
128.8 	0.997348
129 	1.09674
129.2 	1.19227
129.4 	1.28014
129.6 	1.35684
129.8 	1.41931
130 	1.46507
130.2 	1.49229
130.4 	1.49988
130.6 	1.48754
130.8 	1.45576
131 	1.40582
131.2 	1.3397
131.4 	1.26003
131.6 	1.17
131.8 	1.07319
132 	0.97346
132.2 	0.874791
132.4 	0.781113
132.6 	0.696162
132.8 	0.623323
133 	0.565502
133.2 	0.525003
133.4 	0.50344
133.6 	0.501674
133.8 	0.519774
134 	0.557019
134.2 	0.611925
134.4 	0.682302
134.6 	0.765344
134.8 	0.857742
135 	0.955811
135.2 	1.05564
135.4 	1.15325
135.6 	1.24476
135.8 	1.3265
136 	1.39523
136.2 	1.4482
136.4 	1.48331
136.6 	1.49914
136.8 	1.49508
137 	1.47128
137.2 	1.42869
137.4 	1.36901
137.6 	1.29462
137.8 	1.20848
138 	1.11403
138.2 	1.01504
138.4 	0.915446
138.6 	0.819224
138.8 	0.730208
139 	0.651948
139.2 	0.587564
139.4 	0.539623
139.6 	0.510035
139.8 	0.49998
140 	0.50986
140.2 	0.53928
140.4 	0.587067
140.6 	0.651317
140.8 	0.729468
141 	0.818404
141.2 	0.91458
141.4 	1.01416
141.6 	1.11318
141.8 	1.20768
142 	1.29391
142.2 	1.36841
142.4 	1.42823
142.6 	1.47098
142.8 	1.49495
143 	1.49919
143.2 	1.48353
143.4 	1.44859
143.6 	1.39577
143.8 	1.32717
144 	1.24552
144.2 	1.15409
144.4 	1.05652
144.6 	0.956687
144.8 	0.858585
145 	0.766121
145.2 	0.68298
145.4 	0.612479
145.6 	0.557426
145.8 	0.520018
146 	0.501745
146.2 	0.503336
146.4 	0.524727
146.6 	0.565066
146.8 	0.622744
147 	0.695463
147.2 	0.780322
147.4 	0.873939
147.6 	0.972582
147.8 	1.07232
148 	1.16917
148.2 	1.25928
148.4 	1.33905
148.6 	1.40531
148.8 	1.4554
149 	1.48734
149.2 	1.49986
149.4 	1.49244
149.6 	1.46539
149.8 	1.41979
150 	1.35746
150.2 	1.28087
150.4 	1.19308
150.6 	1.0976
150.8 	0.998227
151 	0.898924
151.2 	0.803651
151.4 	0.716205
151.6 	0.640073
151.8 	0.578291
152 	0.533321
152.2 	0.506955
152.4 	0.500246
152.6 	0.513461
152.8 	0.546072
153 	0.59678
153.2 	0.663563
153.4 	0.743759
153.6 	0.83417
153.8 	0.931192
154 	1.03096
154.2 	1.12949
154.4 	1.22286
154.6 	1.30734
154.8 	1.37957
155 	1.43667
155.2 	1.47636
155.4 	1.49706
155.6 	1.49795
155.8 	1.47898
156 	1.44091
156.2 	1.38527
156.4 	1.31427
156.6 	1.23074
156.8 	1.13801
157 	1.03978
157.2 	0.939962
157.4 	0.842539
157.6 	0.751392
157.8 	0.670157
158 	0.602072
158.2 	0.549851
158.4 	0.515576
158.6 	0.500613
158.8 	0.505559
159 	0.530217
159.2 	0.573604
159.4 	0.63399
159.6 	0.708968
159.8 	0.795548
160 	0.890279
160.2 	0.989384
160.4 	1.08891
160.6 	1.1849
160.8 	1.27351
161 	1.35122
161.2 	1.41492
161.4 	1.46209
161.6 	1.49083
161.8 	1.50001
162 	1.48925
162.2 	1.45899
162.4 	1.41042
162.6 	1.3455
162.8 	1.2668
163 	1.17747
163.2 	1.08106
163.4 	0.981416
163.6 	0.882516
163.8 	0.788299
164 	0.702523
164.2 	0.628605
164.4 	0.569494
164.6 	0.527546
164.8 	0.504434
165 	0.501078
165.2 	0.517612
165.4 	0.553377
165.6 	0.606949
165.8 	0.676189
166 	0.758339
166.2 	0.850124
166.4 	0.947883
166.6 	1.04772
166.8 	1.14566
167 	1.23778
167.2 	1.32043
167.4 	1.39031
167.6 	1.44462
167.8 	1.48121
168 	1.49861
168.2 	1.49614
168.4 	1.47388
168.6 	1.43274
168.8 	1.37434
169 	1.30102
169.2 	1.2157
169.4 	1.12177
169.6 	1.023
169.8 	0.923306
170 	0.82667
170.2 	0.736945
170.4 	0.657707
170.6 	0.592115
170.8 	0.542785
171 	0.511681
171.2 	0.500046
171.4 	0.508342
171.6 	0.536239
171.8 	0.582625
172 	0.64565
172.2 	0.722802
172.4 	0.811005
172.6 	0.906743
172.8 	1.0062
173 	1.10541
173.2 	1.20041
173.4 	1.28743
173.6 	1.36299
173.8 	1.42407
174 	1.46825
174.2 	1.49377
174.4 	1.49959
174.6 	1.4855
174.8 	1.45206
175 	1.40059
175.2 	1.33315
175.4 	1.25243
175.6 	1.16165
175.8 	1.06442
176 	0.964626
176.2 	0.86624
176.4 	0.773187
176.6 	0.689176
176.8 	0.617557
177 	0.561185
177.2 	0.522306
177.4 	0.502472
177.6 	0.502473
177.8 	0.522308
178 	0.561188
178.2 	0.617562
178.4 	0.689182
178.6 	0.773193
178.8 	0.866247
179 	0.964633
179.2 	1.06443
179.4 	1.16166
179.6 	1.25244
179.8 	1.33316
180 	1.40059
180.2 	1.45206
180.4 	1.48551
180.6 	1.49959
180.8 	1.49376
181 	1.46825
181.2 	1.42407
181.4 	1.36298
181.6 	1.28742
181.8 	1.20041
182 	1.1054
182.2 	1.00619
182.4 	0.906736
182.6 	0.810998
182.8 	0.722795
183 	0.645644
183.2 	0.58262
183.4 	0.536235
183.6 	0.508339
183.8 	0.500044
184 	0.511681
184.2 	0.542786
184.4 	0.592118
184.6 	0.657711
184.8 	0.73695
185 	0.826676
185.2 	0.923312
185.4 	1.02301
185.6 	1.12178
185.8 	1.2157
186 	1.30102
186.2 	1.37435
186.4 	1.43274
186.6 	1.47389
186.8 	1.49614
187 	1.49861
187.2 	1.48121
187.4 	1.44462
187.6 	1.3903
187.8 	1.32043
188 	1.23778
188.2 	1.14565
188.4 	1.04771
188.6 	0.947876
188.8 	0.850116
189 	0.758332
189.2 	0.676182
189.4 	0.606941
189.6 	0.553371
189.8 	0.517607
190 	0.501073
190.2 	0.504431
190.4 	0.527545
190.6 	0.569495
190.8 	0.628607
191 	0.702526
191.2 	0.788304
191.4 	0.882522
191.6 	0.981423
191.8 	1.08106
192 	1.17747
192.2 	1.26681
192.4 	1.34551
192.6 	1.41043
192.8 	1.45899
193 	1.48925
193.2 	1.50001
193.4 	1.49084
193.6 	1.46209
193.8 	1.41492
194 	1.35122
194.2 	1.27351
194.4 	1.18489
194.6 	1.08891
194.8 	0.989377
195 	0.890271
195.2 	0.795539
195.4 	0.708959
195.6 	0.633982
195.8 	0.573596
196 	0.53021
196.2 	0.505553
196.4 	0.500608
196.6 	0.515572
196.8 	0.549849
197 	0.602072
197.2 	0.670159
197.4 	0.751396
197.6 	0.842544
197.8 	0.939969
198 	1.03979
198.2 	1.13802
198.4 	1.23075
198.6 	1.31428
198.8 	1.38528
199 	1.44092
199.2 	1.47899
199.4 	1.49795
199.6 	1.49707
199.8 	1.47637
200 	1.43668
200.2 	1.37957
200.4 	1.30734
200.6 	1.22286
200.8 	1.12948
201 	1.03095
201.2 	0.931185
201.4 	0.834161
201.6 	0.743749
201.8 	0.663553
202 	0.59677
202.2 	0.546063
202.4 	0.513452
202.6 	0.500239
202.8 	0.506949
203 	0.533316
203.2 	0.578288
203.4 	0.640073
203.6 	0.716207
203.8 	0.803654
204 	0.898929
204.2 	0.998234
204.4 	1.09761
204.6 	1.19309
204.8 	1.28088
205 	1.35747
205.2 	1.4198
205.4 	1.4654
205.6 	1.49245
205.8 	1.49986
206 	1.48735
206.2 	1.45541
206.4 	1.40531
206.6 	1.33905
206.8 	1.25928
207 	1.16917
207.2 	1.07231
207.4 	0.972574
207.6 	0.87393
207.8 	0.780312
208 	0.695452
208.2 	0.622733
208.4 	0.565055
208.6 	0.524716
208.8 	0.503326
209 	0.501736
209.2 	0.520011
209.4 	0.557421
209.6 	0.612476
209.8 	0.68298
210 	0.766122
210.2 	0.858589
210.4 	0.956693
210.6 	1.05652
210.8 	1.1541
211 	1.24553
211.2 	1.32718
211.4 	1.39578
211.6 	1.4486
211.8 	1.48354
212 	1.4992
212.2 	1.49496
212.4 	1.47099
212.6 	1.42824
212.8 	1.36842
213 	1.29391
213.2 	1.20768
213.4 	1.11317
213.6 	1.01415
213.8 	0.914571
214 	0.818394
214.2 	0.729456
214.4 	0.651305
214.6 	0.587055
214.8 	0.539267
215 	0.509848
215.2 	0.499969
215.4 	0.510025
215.6 	0.539615
215.8 	0.587559
216 	0.651946
216.2 	0.730208
216.4 	0.819226
216.6 	0.915451
216.8 	1.01505
217 	1.11404
217.2 	1.20849
217.4 	1.29463
217.6 	1.36902
217.8 	1.4287
218 	1.47129
218.2 	1.49509
218.4 	1.49915
218.6 	1.48332
218.8 	1.44821
219 	1.39524
219.2 	1.3265
219.4 	1.24476
219.6 	1.15325
219.8 	1.05564
220 	0.955803
220.2 	0.857732
220.4 	0.765332
220.6 	0.682288
220.8 	0.611911
221 	0.557005
221.2 	0.51976
221.4 	0.50166
221.6 	0.503428
221.8 	0.524993
222 	0.565494
222.2 	0.623318
222.4 	0.69616
222.6 	0.781114
222.8 	0.874794
223 	0.973467
223.2 	1.0732
223.4 	1.17001
223.6 	1.26004
223.8 	1.33971
224 	1.40583
224.2 	1.45578
224.4 	1.48755
224.6 	1.49989
224.8 	1.4923
225 	1.46508
225.2 	1.41932
225.4 	1.35684
225.6 	1.28014
225.8 	1.19227
226 	1.09673
226.2 	0.99734
226.4 	0.898054
226.6 	0.802831
226.8 	0.715469
227 	0.639451
227.2 	0.577806
227.4 	0.532993
227.6 	0.506798
227.8 	0.500265
228 	0.513655
228.2 	0.546435
228.4 	0.597296
228.6 	0.664212
228.8 	0.744515
229 	0.835003
229.2 	0.932069
229.4 	1.03184
229.6 	1.13035
229.8 	1.22366
230 	1.30805
230.2 	1.38016
230.4 	1.43711
230.6 	1.47664
230.8 	1.49717
231 	1.49788
231.2 	1.47873
231.4 	1.4405
231.6 	1.38471
231.8 	1.31359
232 	1.22996
232.2 	1.13716
232.4 	1.0389
232.6 	0.939081
232.8 	0.841694
233 	0.750618
233.2 	0.669484
233.4 	0.601527
233.6 	0.549456
233.8 	0.515346
234 	0.500558
234.2 	0.505682
234.4 	0.530512
234.6 	0.574059
234.8 	0.634587
235 	0.709683
235.2 	0.796353
235.4 	0.891142
235.6 	0.99027
235.8 	1.08979
236 	1.18572
236.2 	1.27426
236.4 	1.35186
236.6 	1.41543
236.8 	1.46244
237 	1.49101
237.2 	1.50001
237.4 	1.48908
237.6 	1.45864
237.8 	1.40993
238 	1.34487
238.2 	1.26606
238.4 	1.17664
238.6 	1.08018
238.8 	0.98053
239 	0.881652
239.2 	0.787492
239.4 	0.701804
239.6 	0.628004
239.8 	0.569035
240 	0.527247
240.2 	0.504306
240.4 	0.501126
240.6 	0.517836
240.8 	0.553767
241 	0.607489
241.2 	0.676858
241.4 	0.759111
241.6 	0.850967
241.8 	0.948764
242 	1.0486
242.2 	1.14651
242.4 	1.23857
242.6 	1.32112
242.8 	1.39087
243 	1.44503
243.2 	1.48146
243.4 	1.49869
243.6 	1.49604
243.8 	1.47361
244 	1.4323
244.2 	1.37376
244.4 	1.30032
244.6 	1.2149
244.8 	1.12092
245 	1.02211
245.2 	0.922428
245.4 	0.825835
245.6 	0.736186
245.8 	0.657054
246 	0.591594
246.2 	0.542416
246.4 	0.511481
246.6 	0.500021
246.8 	0.508494
247 	0.536561
247.2 	0.583105
247.4 	0.646269
247.6 	0.723534
247.8 	0.811822
248 	0.907612
248.2 	1.00708
248.4 	1.10628
248.6 	1.20123
248.8 	1.28816
249 	1.3636
249.2 	1.42455
249.4 	1.46857
249.6 	1.49391
249.8 	1.49957
250 	1.4853
250.2 	1.45169
250.4 	1.40007
250.6 	1.3325
250.8 	1.25167
251 	1.16081
251.2 	1.06354
251.4 	0.963741
251.6 	0.865384
251.8 	0.772393
252 	0.688476
252.2 	0.616978
252.4 	0.560751
252.6 	0.522035
252.8 	0.502374
253 	0.502551
253.2 	0.522561
253.4 	0.561604
253.6 	0.618125
253.8 	0.68987
254 	0.773979
254.2 	0.867099
254.4 	0.965517
254.6 	1.06531
254.8 	1.1625
255 	1.25321
255.2 	1.33383
255.4 	1.40113
255.6 	1.45245
255.8 	1.48573
256 	1.49964
256.2 	1.49363
256.4 	1.46795
256.6 	1.42361
256.8 	1.36238
257 	1.2867
257.2 	1.1996
257.4 	1.10454
257.6 	1.0053
257.8 	0.905863
258 	0.810174
258.2 	0.722052
258.4 	0.645012
258.6 	0.582123
258.8 	0.535894
259 	0.508168
259.2 	0.500049
259.4 	0.511862
259.6 	0.543135
259.8 	0.592622
260 	0.65835
260.2 	0.737699
260.4 	0.827504
260.6 	0.924187
260.8 	1.02389
261 	1.12264
261.2 	1.21651
261.4 	1.30174
261.6 	1.37494
261.8 	1.4332
262 	1.47418
262.2 	1.49626
262.4 	1.49856
262.6 	1.48098
262.8 	1.44422
263 	1.38976
263.2 	1.31975
263.4 	1.237
263.6 	1.1448
263.8 	1.04683
264 	0.946993
264.2 	0.849267
264.4 	0.757551
264.6 	0.6755
264.8 	0.606386
265 	0.552964
265.2 	0.517364
265.4 	0.501005
265.6 	0.504539
265.8 	0.527826
266 	0.569937
266.2 	0.629193
266.4 	0.703233
266.6 	0.789103
266.8 	0.883381
267 	0.982309
267.2 	1.08194
267.4 	1.17831
267.6 	1.26756
267.8 	1.34616
268 	1.41095
268.2 	1.45935
268.4 	1.48945
268.6 	1.50003
268.8 	1.49068
269 	1.46176
269.2 	1.41444
269.4 	1.35059
269.6 	1.27277
269.8 	1.18407
270 	1.08804
270.2 	0.98849
270.4 	0.889404
270.6 	0.794726
270.8 	0.708232
271 	0.63337
271.2 	0.573125
271.4 	0.529897
271.6 	0.505411
271.8 	0.500643
272 	0.515782
272.2 	0.550226
272.4 	0.602601
272.6 	0.670819
272.8 	0.75216
273 	0.843382
273.2 	0.940848
273.4 	1.04067
273.6 	1.13887
273.8 	1.23154
274 	1.31498
274.2 	1.38585
274.4 	1.44135
274.6 	1.47925
274.8 	1.49804
275 	1.49698
275.2 	1.47611
275.4 	1.43625
275.6 	1.37901
275.8 	1.30665
276 	1.22207
276.2 	1.12863
276.4 	1.03007
276.6 	0.930305
276.8 	0.833321
277 	0.742983
277.2 	0.662891
277.4 	0.596238
277.6 	0.545682
277.8 	0.513238
278 	0.5002
278.2 	0.507087
278.4 	0.533625
278.6 	0.578756
278.8 	0.640681
279 	0.716931
279.2 	0.804465
279.4 	0.899796
279.6 	0.999121
279.8 	1.09848
280 	1.19391
280.2 	1.28162
280.4 	1.35809
280.6 	1.42029
280.8 	1.46574
281 	1.49261
281.2 	1.49985
281.4 	1.48716
281.6 	1.45505
281.8 	1.4048
282 	1.33841
282.2 	1.25852
282.4 	1.16834
282.6 	1.07144
282.8 	0.971689
283 	0.87307
283.2 	0.779511
283.4 	0.694742
283.6 	0.622143
283.8 	0.564609
284 	0.524431
284.2 	0.503213
284.4 	0.501801
284.6 	0.52025
284.8 	0.557825
285 	0.613028
285.2 	0.683659
285.4 	0.766901
285.6 	0.859436
285.8 	0.957575
286 	1.05741
286.2 	1.15495
286.4 	1.24631
286.6 	1.32786
286.8 	1.39633
287 	1.449
287.2 	1.48378
287.4 	1.49926
287.6 	1.49485
287.8 	1.4707
288 	1.42779
288.2 	1.36783
288.4 	1.2932
288.6 	1.20688
288.8 	1.11231
289 	1.01327
289.2 	0.913696
289.4 	0.817564
289.6 	0.728705
289.8 	0.650662
290 	0.586546
290.2 	0.538914
290.4 	0.509663
290.6 	0.49996
290.8 	0.510192
291 	0.539952
291.2 	0.588052
291.4 	0.652575
291.6 	0.730949
291.8 	0.820049
292 	0.916323
292.2 	1.01593
292.4 	1.11491
292.6 	1.2093
292.8 	1.29535
293 	1.36963
293.2 	1.42917
293.4 	1.4716
293.6 	1.49522
293.8 	1.49911
294 	1.4831
294.2 	1.44783
294.4 	1.3947
294.6 	1.32584
294.8 	1.24399
295 	1.15241
295.2 	1.05476
295.4 	0.954919
295.6 	0.856879
295.8 	0.764545
296 	0.681597
296.2 	0.611344
296.4 	0.556585
296.6 	0.519503
296.8 	0.501578
297 	0.503522
297.2 	0.52526
297.4 	0.565924
297.6 	0.623894
297.8 	0.696858
298 	0.781906
298.2 	0.87565
298.4 	0.974351
298.6 	1.07407
298.8 	1.17085
299 	1.2608
299.2 	1.34037
299.4 	1.40636
299.6 	1.45615
299.8 	1.48776
300 	1.49992
300.2 	1.49215
300.4 	1.46476
300.6 	1.41885
300.8 	1.35623
301 	1.27941
301.2 	1.19145
301.4 	1.09587
301.6 	0.996454
301.8 	0.897184
302 	0.802013
302.2 	0.714735
302.4 	0.638829
302.6 	0.577323
302.8 	0.532667
303 	0.506642
303.2 	0.500286
303.4 	0.513852
303.6 	0.546799
303.8 	0.597814
304 	0.664862
304.2 	0.745272
304.4 	0.835837
304.6 	0.932946
304.8 	1.03273
305 	1.13121
305.2 	1.22445
305.4 	1.30875
305.6 	1.38074
305.8 	1.43755
306 	1.47692
306.2 	1.49727
306.4 	1.4978
306.6 	1.47849
306.8 	1.44009
307 	1.38416
307.2 	1.3129
307.4 	1.22918
307.6 	1.13631
307.8 	1.03801
308 	0.9382
308.2 	0.84085
308.4 	0.749845
308.6 	0.668813
308.8 	0.600984
309 	0.549062
309.2 	0.515118
309.4 	0.500505
309.6 	0.505805
309.8 	0.530807
310 	0.574515
310.2 	0.635185
310.4 	0.710399
310.6 	0.797158
310.8 	0.892005
311 	0.991156
311.2 	1.09066
311.4 	1.18655
311.6 	1.275
311.8 	1.35249
312 	1.41593
312.2 	1.46278
312.4 	1.49119
312.6 	1.50001
312.8 	1.4889
313 	1.4583
313.2 	1.40943
313.4 	1.34423
313.6 	1.26531
313.8 	1.17582
314 	1.07931
314.2 	0.979644
314.4 	0.880788
314.6 	0.786685
314.8 	0.701086
315 	0.627404
315.2 	0.568577
315.4 	0.526948
315.6 	0.504179
315.8 	0.501177
316 	0.518061
316.2 	0.554158
316.4 	0.60803
316.6 	0.677528
316.8 	0.759883
317 	0.85181
317.2 	0.949645
317.4 	1.04949
317.6 	1.14736
317.8 	1.23935
318 	1.3218
318.2 	1.39143
318.4 	1.44545
318.6 	1.48171
318.8 	1.49876
319 	1.49593
319.2 	1.47333
319.4 	1.43186
319.6 	1.37318
319.8 	1.29961
320 	1.2141
320.2 	1.12006
320.4 	1.02123
320.6 	0.921551
320.8 	0.825001
321 	0.735428
321.2 	0.656402
321.4 	0.591075
321.6 	0.54205
321.8 	0.511282
322 	0.499998
322.2 	0.508647
322.4 	0.536885
322.6 	0.583586
322.8 	0.646888
323 	0.724268
323.2 	0.81264
323.4 	0.908481
323.6 	1.00797
323.8 	1.10714
324 	1.20204
324.2 	1.28889
324.4 	1.36422
324.6 	1.42503
324.8 	1.46889
325 	1.49406
325.2 	1.49954
325.4 	1.4851
325.6 	1.45132
325.8 	1.39954
326 	1.33184
326.2 	1.25091
326.4 	1.15998
326.6 	1.06267
326.8 	0.962856
327 	0.864527
327.2 	0.771599
327.4 	0.687776
327.6 	0.616401
327.8 	0.560318
328 	0.521765
328.2 	0.502277
328.4 	0.502632
328.6 	0.522815
328.8 	0.562022
329 	0.61869
329.2 	0.690559
329.4 	0.774765
329.6 	0.867951
329.8 	0.9664
330 	1.06619
330.2 	1.16334
330.4 	1.25398
330.6 	1.33449
330.8 	1.40167
331 	1.45284
331.2 	1.48595
331.4 	1.49969
331.6 	1.4935
331.8 	1.46765
332 	1.42315
332.2 	1.36178
332.4 	1.28598
332.6 	1.19879
332.8 	1.10367
333 	1.00442
333.2 	0.90499
333.4 	0.80935
333.6 	0.72131
333.8 	0.64438
334 	0.581628
334.2 	0.535555
334.4 	0.507998
334.6 	0.500056
334.8 	0.512045
335 	0.543487
335.2 	0.593128
335.4 	0.658991
335.6 	0.738448
335.8 	0.828333
336 	0.925062
336.2 	1.02478
336.4 	1.12351
336.6 	1.21731
336.8 	1.30245
337 	1.37553
337.2 	1.43365
337.4 	1.47447
337.6 	1.49638
337.8 	1.4985
338 	1.48074
338.2 	1.44382
338.4 	1.38921
338.6 	1.31908
338.8 	1.23623
339 	1.14396
339.2 	1.04595
339.4 	0.946111
339.6 	0.848419
339.8 	0.75677
340 	0.674819
340.2 	0.605831
340.4 	0.552557
340.6 	0.517122
340.8 	0.500937
341 	0.504649
341.2 	0.528108
341.4 	0.570381
341.6 	0.629781
341.8 	0.70394
342 	0.789903
342.2 	0.884241
342.4 	0.983194
342.6 	1.08282
342.8 	1.17914
343 	1.26832
343.2 	1.3468
343.4 	1.41146
343.6 	1.45971
343.8 	1.48964
344 	1.50004
344.2 	1.49052
344.4 	1.46143
344.6 	1.41395
344.8 	1.34997
345 	1.27203
345.2 	1.18325
345.4 	1.08716
345.6 	0.987604
345.8 	0.888537
346 	0.793914
346.2 	0.707506
346.4 	0.63276
346.6 	0.572654
346.8 	0.529585
347 	0.505271
347.2 	0.500679
347.4 	0.515994
347.6 	0.550604
347.8 	0.603131
348 	0.671479
348.2 	0.752925
348.4 	0.844221
348.6 	0.941727
348.8 	1.04156
349 	1.13973
349.2 	1.23233
349.4 	1.31567
349.6 	1.38643
349.8 	1.44178
350 	1.47951
350.2 	1.49813
350.4 	1.49689
350.6 	1.47585
350.8 	1.43583
351 	1.37843
351.2 	1.30595
351.4 	1.22128
351.6 	1.12778
351.8 	1.02918
352 	0.929426
352.2 	0.832482
352.4 	0.742217
352.6 	0.662229
352.8 	0.595707
353 	0.545302
353.2 	0.513025
353.4 	0.500162
353.6 	0.507226
353.8 	0.533936
354 	0.579226
354.2 	0.64129
354.4 	0.717656
354.6 	0.805278
354.8 	0.900662
355 	1.00001
355.2 	1.09935
355.4 	1.19474
355.6 	1.28236
355.8 	1.35872
356 	1.42078
356.2 	1.46607
356.4 	1.49278
356.6 	1.49984
356.8 	1.48697
357 	1.45469
357.2 	1.40429
357.4 	1.33776
357.6 	1.25777
357.8 	1.1675
358 	1.07056
358.2 	0.970803
358.4 	0.87221
358.6 	0.778711
358.8 	0.694034
359 	0.621555
359.2 	0.564164
359.4 	0.524148
359.6 	0.503102
359.8 	0.501867
360 	0.52049
360.2 	0.55823
360.4 	0.613582
360.6 	0.684339
360.8 	0.767681
361 	0.860284
361.2 	0.958458
361.4 	1.05829
361.6 	1.15579
361.8 	1.24709
362 	1.32853
362.2 	1.39688
362.4 	1.4494
362.6 	1.48401
362.8 	1.49932
363 	1.49473
363.2 	1.47041
363.4 	1.42734
363.6 	1.36723
363.8 	1.29248
364 	1.20607
364.2 	1.11145
364.4 	1.01238
364.6 	0.912821
364.8 	0.816735
365 	0.727955
365.2 	0.650021
365.4 	0.58604
365.6 	0.538561
365.8 	0.509479
366 	0.499952
366.2 	0.510361
366.4 	0.54029
366.6 	0.588546
366.8 	0.653206
367 	0.731691
367.2 	0.820873
367.4 	0.917196
367.6 	1.01682
367.8 	1.11577
368 	1.21011
368.2 	1.29607
368.4 	1.37023
368.6 	1.42963
368.8 	1.4719
369 	1.49536
369.2 	1.49907
369.4 	1.48288
369.6 	1.44744
369.8 	1.39416
370 	1.32517
370.2 	1.24322
370.4 	1.15157
370.6 	1.05388
370.8 	0.954035
371 	0.856027
371.2 	0.763758
371.4 	0.680908
371.6 	0.610778
371.8 	0.556166
372 	0.519248
372.2 	0.501496
372.4 	0.503618
372.6 	0.525529
372.8 	0.566356
373 	0.624471
373.2 	0.697556
373.4 	0.7827
373.6 	0.876506
373.8 	0.975236
374 	1.07495
374.2 	1.17168
374.4 	1.26157
374.6 	1.34102
374.8 	1.40688
375 	1.45652
375.2 	1.48796
375.4 	1.49995
375.6 	1.49201
375.8 	1.46445
376 	1.41837
376.2 	1.35561
376.4 	1.27868
376.6 	1.19064
376.8 	1.095
377 	0.995567
377.2 	0.896314
377.4 	0.801195
377.6 	0.714001
377.8 	0.638209
378 	0.57684
378.2 	0.532342
378.4 	0.506488
378.6 	0.500308
378.8 	0.51405
379 	0.547164
379.2 	0.598332
379.4 	0.665514
379.6 	0.74603
379.8 	0.836671
380 	0.933823
380.2 	1.03361
380.4 	1.13206
380.6 	1.22525
380.8 	1.30946
381 	1.38133
381.2 	1.43799
381.4 	1.4772
381.6 	1.49738
381.8 	1.49773
382 	1.47824
382.2 	1.43968
382.4 	1.3836
382.6 	1.31222
382.8 	1.22839
383 	1.13546
383.2 	1.03713
383.4 	0.937319
383.6 	0.840006
383.8 	0.749072
384 	0.668142
384.2 	0.600441
384.4 	0.54867
384.6 	0.514892
384.8 	0.500454
385 	0.505931
385.2 	0.531105
385.4 	0.574972
385.6 	0.635784
385.8 	0.711116
386 	0.797965
386.2 	0.892868
386.4 	0.992043
386.6 	1.09153
386.8 	1.18738
387 	1.27575
387.2 	1.35313
387.4 	1.41643
387.6 	1.46313
387.8 	1.49136
388 	1.50001
388.2 	1.48872
388.4 	1.45795
388.6 	1.40893
388.8 	1.34359
389 	1.26457
389.2 	1.17499
389.4 	1.07844
389.6 	0.978757
389.8 	0.879925
390 	0.785879
390.2 	0.70037
390.4 	0.626806
390.6 	0.56812
390.8 	0.526651
391 	0.504054
391.2 	0.501229
391.4 	0.518287
391.6 	0.554551
391.8 	0.608573
392 	0.678199
392.2 	0.760656
392.4 	0.852654
392.6 	0.950526
392.8 	1.05037
393 	1.14821
393.2 	1.24013
393.4 	1.32249
393.6 	1.39199
393.8 	1.44586
394 	1.48195
394.2 	1.49884
394.4 	1.49583
394.6 	1.47306
394.8 	1.43143
395 	1.37259
395.2 	1.29891
395.4 	1.21331
395.6 	1.1192
395.8 	1.02034
396 	0.920674
396.2 	0.824167
396.4 	0.73467
396.6 	0.655751
396.8 	0.590556
397 	0.541685
397.2 	0.511085
397.4 	0.499976
397.6 	0.508802
397.8 	0.53721
398 	0.584069
398.2 	0.647509
398.4 	0.725002
398.6 	0.813458
398.8 	0.909351
399 	1.00886
399.2 	1.10801
399.4 	1.20286
399.6 	1.28962
399.8 	1.36483
400 	1.4255
400.2 	1.46921
400.4 	1.49421
400.6 	1.49951
400.8 	1.48489
401 	1.45094
401.2 	1.39902
401.4 	1.33119
401.6 	1.25015
401.8 	1.15914
402 	1.06179
402.2 	0.961971
402.4 	0.863671
402.6 	0.770805
402.8 	0.687077
403 	0.615824
403.2 	0.559887
403.4 	0.521496
403.6 	0.502181
403.8 	0.502713
404 	0.52307
404.2 	0.562441
404.4 	0.619256
404.6 	0.691249
404.8 	0.775552
405 	0.868803
405.2 	0.967284
405.4 	1.06707
405.6 	1.16418
405.8 	1.25475
406 	1.33516
406.2 	1.40221
406.4 	1.45322
406.6 	1.48617
406.8 	1.49973
407 	1.49337
407.2 	1.46734
407.4 	1.42268
407.6 	1.36117
407.8 	1.28526
408 	1.19798
408.2 	1.10281
408.4 	1.00353
408.6 	0.904118
408.8 	0.808526
409 	0.720568
409.2 	0.64375
409.4 	0.581134
409.6 	0.535217
409.8 	0.50783
410 	0.500064
410.2 	0.512229
410.4 	0.543839
410.6 	0.593636
410.8 	0.659632
411 	0.739199
411.2 	0.829162
411.4 	0.925937
411.6 	1.02566
411.8 	1.12437
412 	1.21811
412.2 	1.30316
412.4 	1.37613
412.6 	1.4341
412.8 	1.47476
413 	1.4965
413.2 	1.49844
413.4 	1.48051
413.6 	1.44342
413.8 	1.38866
414 	1.3184
414.2 	1.23545
414.4 	1.14311
414.6 	1.04507
414.8 	0.945228
415 	0.847571
415.2 	0.755991
415.4 	0.674139
415.6 	0.605278
415.8 	0.552153
416 	0.516882
416.2 	0.500872
416.4 	0.50476
416.6 	0.528392
416.8 	0.570826
417 	0.630369
417.2 	0.704649
417.4 	0.790703
417.6 	0.885101
417.8 	0.98408
418 	1.08369
418.2 	1.17997
418.4 	1.26907
418.6 	1.34745
418.8 	1.41197
419 	1.46007
419.2 	1.48983
419.4 	1.50006
419.6 	1.49035
419.8 	1.4611
420 	1.41346
420.2 	1.34934
420.4 	1.27129
420.6 	1.18243
420.8 	1.08629
421 	0.986717
421.2 	0.88767
421.4 	0.793102
421.6 	0.706782
421.8 	0.632151
422 	0.572185
422.2 	0.529275
422.4 	0.505132
422.6 	0.500717
422.8 	0.516207
423 	0.550984
423.2 	0.603662
423.4 	0.672141
423.6 	0.753691
423.8 	0.84506
424 	0.942606
424.2 	1.04244
424.4 	1.14058
424.6 	1.23312
424.8 	1.31636
425 	1.387
425.2 	1.4422
425.4 	1.47977
425.6 	1.49822
425.8 	1.49681
426 	1.47558
426.2 	1.4354
426.4 	1.37786
426.6 	1.30526
426.8 	1.22049
427 	1.12692
427.2 	1.0283
427.4 	0.928547
427.6 	0.831644
427.8 	0.741452
428 	0.661568
428.2 	0.595177
428.4 	0.544924
428.6 	0.512814
428.8 	0.500126
429 	0.507367
429.2 	0.534248
429.4 	0.579696
429.6 	0.641901
429.8 	0.718382
430 	0.80609
430.2 	0.901529
430.4 	1.00089
430.6 	1.10022
430.8 	1.19556
431 	1.28309
431.2 	1.35934
431.4 	1.42127
431.6 	1.4664
431.8 	1.49294
432 	1.49982
432.2 	1.48678
432.4 	1.45433
432.6 	1.40377
432.8 	1.33711
433 	1.25702
433.2 	1.16667
433.4 	1.06968
433.6 	0.969917
433.8 	0.87135
434 	0.777911
434.2 	0.693327
434.4 	0.620968
434.6 	0.56372
434.8 	0.523866
435 	0.502993
435.2 	0.501934
435.4 	0.520732
435.6 	0.558637
435.8 	0.614137
436 	0.685021
436.2 	0.768461
436.4 	0.861133
436.6 	0.959341
436.8 	1.05917
437 	1.15664
437.2 	1.24786
437.4 	1.32921
437.6 	1.39743
437.8 	1.4498
438 	1.48424
438.2 	1.49938
438.4 	1.49461
438.6 	1.47012
438.8 	1.42689
439 	1.36664
439.2 	1.29177
439.4 	1.20527
439.6 	1.11059
439.8 	1.0115
440 	0.911946
440.2 	0.815906
440.4 	0.727206
440.6 	0.649381
440.8 	0.585534
441 	0.53821
441.2 	0.509297
441.4 	0.499946
441.6 	0.510531
441.8 	0.54063
442 	0.589042
442.2 	0.653838
442.4 	0.732434
442.6 	0.821697
442.8 	0.918069
443 	1.01771
443.2 	1.11664
443.4 	1.21092
443.6 	1.29679
443.8 	1.37083
444 	1.43009
444.2 	1.4722
444.4 	1.49549
444.6 	1.49902
444.8 	1.48266
445 	1.44705
445.2 	1.39363
445.4 	1.32451
445.6 	1.24245
445.8 	1.15073
446 	1.053
446.2 	0.953151
446.4 	0.855175
446.6 	0.762972
446.8 	0.680219
447 	0.610214
447.2 	0.555749
447.4 	0.518995
447.6 	0.501416
447.8 	0.503715
448 	0.5258
448.2 	0.566789
448.4 	0.625048
448.6 	0.698256
448.8 	0.783494
449 	0.877363
449.2 	0.976121
449.4 	1.07583
449.6 	1.17252
449.8 	1.26233
450 	1.34168
450.2 	1.40741
450.4 	1.4569
450.6 	1.48817
450.8 	1.49998
451 	1.49186
451.2 	1.46413
451.4 	1.41789
451.6 	1.355
451.8 	1.27795
452 	1.18982
452.2 	1.09413
452.4 	0.994681
452.6 	0.895445
452.8 	0.800377
453 	0.713268
453.2 	0.63759
453.4 	0.57636
453.6 	0.532019
453.8 	0.506335
454 	0.500332
454.2 	0.514249
454.4 	0.547531
454.6 	0.598852
454.8 	0.666166
455 	0.746788
455.2 	0.837505
455.4 	0.934701
455.6 	1.0345
455.8 	1.13292
456 	1.22605
456.2 	1.31016
456.4 	1.38191
456.6 	1.43843
456.8 	1.47747
457 	1.49748
457.2 	1.49765
457.4 	1.47799
457.6 	1.43927
457.8 	1.38304
458 	1.31153
458.2 	1.22761
458.4 	1.13461
458.6 	1.03625
458.8 	0.936438
459 	0.839163
459.2 	0.7483
459.4 	0.667472
459.6 	0.5999
459.8 	0.548279
460 	0.514667
460.2 	0.500404
460.4 	0.506057
460.6 	0.531403
460.8 	0.57543
461 	0.636384
461.2 	0.711834
461.4 	0.798772
461.6 	0.893732
461.8 	0.992929
462 	1.09241
462.2 	1.1882
462.4 	1.27649
462.6 	1.35376
462.8 	1.41693
463 	1.46347
463.2 	1.49154
463.4 	1.50001
463.6 	1.48855
463.8 	1.45761
464 	1.40842
464.2 	1.34296
464.4 	1.26382
464.6 	1.17416
464.8 	1.07756
465 	0.977871
465.2 	0.879062
465.4 	0.785074
465.6 	0.699654
465.8 	0.626208
466 	0.567664
466.2 	0.526356
466.4 	0.503931
466.6 	0.501282
466.8 	0.518516
467 	0.554945
467.2 	0.609116
467.4 	0.678872
467.6 	0.761429
467.8 	0.853498
468 	0.951407
468.2 	1.05125
468.4 	1.14906
468.6 	1.24092
468.8 	1.32317
469 	1.39255
469.2 	1.44627
469.4 	1.4822
469.6 	1.49891
469.8 	1.49573
470 	1.47278
470.2 	1.43099
470.4 	1.37201
470.6 	1.2982
470.8 	1.21251
471 	1.11834
471.2 	1.01946
471.4 	0.919797
471.6 	0.823333
471.8 	0.733913
472 	0.655101
472.2 	0.590039
472.4 	0.541321
472.6 	0.510889
472.8 	0.499956
473 	0.508958
473.2 	0.537537
473.4 	0.584552
473.6 	0.64813
473.8 	0.725737
474 	0.814277
474.2 	0.910221
474.4 	1.00974
474.6 	1.10888
474.8 	1.20367
475 	1.29035
475.2 	1.36545
475.4 	1.42598
475.6 	1.46953
475.8 	1.49435
476 	1.49948
476.2 	1.48468
476.4 	1.45057
476.6 	1.39849
476.8 	1.33053
477 	1.24939
477.2 	1.1583
477.4 	1.06091
477.6 	0.961087
477.8 	0.862815
478 	0.770013
478.2 	0.68638
478.4 	0.615249
478.6 	0.559458
478.8 	0.521229
479 	0.502088
479.2 	0.502796
479.4 	0.523327
479.6 	0.562861
479.8 	0.619823
480 	0.691941
480.2 	0.77634
480.4 	0.869656
480.6 	0.968168
480.8 	1.06795
481 	1.16502
481.2 	1.25552
481.4 	1.33582
481.6 	1.40274
481.8 	1.4536
482 	1.48638
482.2 	1.49977
482.4 	1.49324
482.6 	1.46704
482.8 	1.42222
483 	1.36057
483.2 	1.28454
483.4 	1.19717
483.6 	1.10194
483.8 	1.00265
484 	0.903246
484.2 	0.807703
484.4 	0.719827
484.6 	0.64312
484.8 	0.580641
485 	0.534881
485.2 	0.507663
485.4 	0.500073
485.6 	0.512414
485.8 	0.544193
486 	0.594144
486.2 	0.660275
486.4 	0.73995
486.6 	0.829992
486.8 	0.926812
487 	1.02655
487.2 	1.12523
487.4 	1.21892
487.6 	1.30387
487.8 	1.37672
488 	1.43455
488.2 	1.47505
488.4 	1.49661
488.6 	1.49838
488.8 	1.48027
489 	1.44302
489.2 	1.38811
489.4 	1.31773
489.6 	1.23467
489.8 	1.14227
490 	1.04419
490.2 	0.944346
490.4 	0.846724
490.6 	0.755212
490.8 	0.67346
491 	0.604725
491.2 	0.551749
491.4 	0.516643
491.6 	0.500808
491.8 	0.504873
492 	0.528678
492.2 	0.571272
492.4 	0.630959
492.6 	0.705358
492.8 	0.791504
493 	0.885962
493.2 	0.984966
493.4 	1.08457
493.6 	1.1808
493.8 	1.26983
494 	1.34809
494.2 	1.41248
494.4 	1.46043
494.6 	1.49002
494.8 	1.50007
495 	1.49019
495.2 	1.46076
495.4 	1.41297
495.6 	1.34871
495.8 	1.27055
496 	1.18161
496.2 	1.08542
496.4 	0.985831
496.6 	0.886804
496.8 	0.792291
497 	0.706057
497.2 	0.631543
497.4 	0.571718
497.6 	0.528967
497.8 	0.504994
498 	0.500756
498.2 	0.516421
498.4 	0.551365
498.6 	0.604195
498.8 	0.672804
499 	0.754457
499.2 	0.8459
499.4 	0.943486
499.6 	1.04332
499.8 	1.14144
500 	1.23391
