0 	1
0.2 	1
0.4 	1
0.6 	1
0.8 	1
1 	1
1.2 	1
1.4 	1
1.6 	1
1.8 	1
2 	1
2.2 	1
2.4 	1
2.6 	1
2.8 	1
3 	1
3.2 	1
3.4 	1
3.6 	1
3.8 	1
4 	1
4.2 	1
4.4 	1
4.6 	1
4.8 	1
5 	1
5.2 	1
5.4 	1
5.6 	1
5.8 	1
6 	1
6.2 	1
6.4 	1
6.6 	1
6.8 	1
7 	1
7.2 	1
7.4 	1
7.6 	1
7.8 	1
8 	1
8.2 	1
8.4 	1
8.6 	1
8.8 	1
9 	1
9.2 	1
9.4 	1
9.6 	1
9.8 	1
10 	1
10.2 	1
10.4 	1
10.6 	1
10.8 	1
11 	1
11.2 	1
11.4 	1
11.6 	1
11.8 	1
12 	1
12.2 	1
12.4 	1
12.6 	1
12.8 	1
13 	1
13.2 	1
13.4 	1
13.6 	1
13.8 	1
14 	1
14.2 	1
14.4 	1
14.6 	1
14.8 	1
15 	1
15.2 	1
15.4 	1
15.6 	1
15.8 	1
16 	1
16.2 	1
16.4 	1
16.6 	1
16.8 	1
17 	1
17.2 	1
17.4 	1
17.6 	1
17.8 	1
18 	1
18.2 	1
18.4 	1
18.6 	1
18.8 	1
19 	1
19.2 	1
19.4 	1
19.6 	1
19.8 	1
20 	1
20.2 	1
20.4 	1
20.6 	1
20.8 	1
21 	1
21.2 	1
21.4 	1
21.6 	1
21.8 	1
22 	1
22.2 	1
22.4 	1
22.6 	1
22.8 	1
23 	1
23.2 	1
23.4 	1
23.6 	1
23.8 	1
24 	1
24.2 	1
24.4 	1
24.6 	1
24.8 	1
25 	1
25.2 	1
25.4 	1
25.6 	1
25.8 	1
26 	1
26.2 	1
26.4 	1
26.6 	1
26.8 	1
27 	1
27.2 	1
27.4 	1
27.6 	1
27.8 	1
28 	1
28.2 	1
28.4 	1
28.6 	1
28.8 	1
29 	1
29.2 	1
29.4 	1
29.6 	1
29.8 	1
30 	1
30.2 	1
30.4 	1
30.6 	1
30.8 	1
31 	1
31.2 	1
31.4 	1
31.6 	1
31.8 	1
32 	1
32.2 	1
32.4 	1
32.6 	1
32.8 	1
33 	1
33.2 	1
33.4 	1
33.6 	1
33.8 	1
34 	1
34.2 	1
34.4 	1
34.6 	1
34.8 	1
35 	1
35.2 	1
35.4 	1
35.6 	1
35.8 	1
36 	1
36.2 	1
36.4 	1
36.6 	1
36.8 	1
37 	1
37.2 	1
37.4 	1
37.6 	1
37.8 	1
38 	1
38.2 	1
38.4 	1
38.6 	1
38.8 	1
39 	1
39.2 	1
39.4 	1
39.6 	1
39.8 	1
40 	1
40.2 	1
40.4 	1
40.6 	1
40.8 	1
41 	1
41.2 	1
41.4 	1
41.6 	1
41.8 	1
42 	1
42.2 	1
42.4 	1
42.6 	1
42.8 	1
43 	1
43.2 	1
43.4 	1
43.6 	1
43.8 	1
44 	1
44.2 	1
44.4 	1
44.6 	1
44.8 	1
45 	1
45.2 	1
45.4 	1
45.6 	1
45.8 	1
46 	1
46.2 	1
46.4 	1
46.6 	1
46.8 	1
47 	1
47.2 	1
47.4 	1
47.6 	1
47.8 	1
48 	1
48.2 	1
48.4 	1
48.6 	1
48.8 	1
49 	1
49.2 	1
49.4 	1
49.6 	1
49.8 	1
50 	1
50.2 	1
50.4 	1
50.6 	1
50.8 	1
51 	1
51.2 	1
51.4 	1
51.6 	1
51.8 	1
52 	1
52.2 	1
52.4 	1
52.6 	1
52.8 	1
53 	1
53.2 	1
53.4 	1
53.6 	1
53.8 	1
54 	1
54.2 	1
54.4 	1
54.6 	1
54.8 	1
55 	1
55.2 	1
55.4 	1
55.6 	1
55.8 	1
56 	1
56.2 	1
56.4 	1
56.6 	1
56.8 	1
57 	1
57.2 	1
57.4 	1
57.6 	1
57.8 	1
58 	1
58.2 	1
58.4 	1
58.6 	1
58.8 	1
59 	1
59.2 	1
59.4 	1
59.6 	1
59.8 	1
60 	1
60.2 	1
60.4 	1
60.6 	1
60.8 	1
61 	1
61.2 	1
61.4 	1
61.6 	1
61.8 	1
62 	1
62.2 	1
62.4 	1
62.6 	1
62.8 	1
63 	1
63.2 	1
63.4 	1
63.6 	1
63.8 	1
64 	1
64.2 	1
64.4 	1
64.6 	1
64.8 	1
65 	1
65.2 	1
65.4 	1
65.6 	1
65.8 	1
66 	1
66.2 	1
66.4 	1
66.6 	1
66.8 	1
67 	1
67.2 	1
67.4 	1
67.6 	1
67.8 	1
68 	1
68.2 	1
68.4 	1
68.6 	1
68.8 	1
69 	1
69.2 	1
69.4 	1
69.6 	1
69.8 	1
70 	1
70.2 	1
70.4 	1
70.6 	1
70.8 	1
71 	1
71.2 	1
71.4 	1
71.6 	1
71.8 	1
72 	1
72.2 	1
72.4 	1
72.6 	1
72.8 	1
73 	1
73.2 	1
73.4 	1
73.6 	1
73.8 	1
74 	1
74.2 	1
74.4 	1
74.6 	1
74.8 	1
75 	1
75.2 	1
75.4 	1
75.6 	1
75.8 	1
76 	1
76.2 	1
76.4 	1
76.6 	1
76.8 	1
77 	1
77.2 	1
77.4 	1
77.6 	1
77.8 	1
78 	1
78.2 	1
78.4 	1
78.6 	1
78.8 	1
79 	1
79.2 	1
79.4 	1
79.6 	1
79.8 	1
80 	1
80.2 	1
80.4 	1
80.6 	1
80.8 	1
81 	1
81.2 	1
81.4 	1
81.6 	1
81.8 	1
82 	1
82.2 	1
82.4 	1
82.6 	1
82.8 	1
83 	1
83.2 	1
83.4 	1
83.6 	1
83.8 	1
84 	1
84.2 	1
84.4 	1
84.6 	1
84.8 	1
85 	1
85.2 	1
85.4 	1
85.6 	1
85.8 	1
86 	1
86.2 	1
86.4 	1
86.6 	1
86.8 	1
87 	1
87.2 	1
87.4 	1
87.6 	1
87.8 	1
88 	1
88.2 	1
88.4 	1
88.6 	1
88.8 	1
89 	1
89.2 	1
89.4 	1
89.6 	1
89.8 	1
90 	1
90.2 	1
90.4 	1
90.6 	1
90.8 	1
91 	1
91.2 	1
91.4 	1
91.6 	1
91.8 	1
92 	1
92.2 	1
92.4 	1
92.6 	1
92.8 	1
93 	1
93.2 	1
93.4 	1
93.6 	1
93.8 	1
94 	1
94.2 	1
94.4 	1
94.6 	1
94.8 	1
95 	1
95.2 	1
95.4 	1
95.6 	1
95.8 	1
96 	1
96.2 	1
96.4 	1
96.6 	1
96.8 	1
97 	1
97.2 	1
97.4 	1
97.6 	1
97.8 	1
98 	1
98.2 	1
98.4 	1
98.6 	1
98.8 	1
99 	1
99.2 	1
99.4 	1
99.6 	1
99.8 	1
100 	1
100.2 	1
100.4 	1
100.6 	1
100.8 	1
101 	1
101.2 	1
101.4 	1
101.6 	1
101.8 	1
102 	1
102.2 	1
102.4 	1
102.6 	1
102.8 	1
103 	1
103.2 	1
103.4 	1
103.6 	1
103.8 	1
104 	1
104.2 	1
104.4 	1
104.6 	1
104.8 	1
105 	1
105.2 	1
105.4 	1
105.6 	1
105.8 	1
106 	1
106.2 	1
106.4 	1
106.6 	1
106.8 	1
107 	1
107.2 	1
107.4 	1
107.6 	1
107.8 	1
108 	1
108.2 	1
108.4 	1
108.6 	1
108.8 	1
109 	1
109.2 	1
109.4 	1
109.6 	1
109.8 	1
110 	1
110.2 	1
110.4 	1
110.6 	1
110.8 	1
111 	1
111.2 	1
111.4 	1
111.6 	1
111.8 	1
112 	1
112.2 	1
112.4 	1
112.6 	1
112.8 	1
113 	1
113.2 	1
113.4 	1
113.6 	1
113.8 	1
114 	1
114.2 	1
114.4 	1
114.6 	1
114.8 	1
115 	1
115.2 	1
115.4 	1
115.6 	1
115.8 	1
116 	1
116.2 	1
116.4 	1
116.6 	1
116.8 	1
117 	1
117.2 	1
117.4 	1
117.6 	1
117.8 	1
118 	1
118.2 	1
118.4 	1
118.6 	1
118.8 	1
119 	1
119.2 	1
119.4 	1
119.6 	1
119.8 	1
120 	1
120.2 	1
120.4 	1
120.6 	1
120.8 	1
121 	1
121.2 	1
121.4 	1
121.6 	1
121.8 	1
122 	1
122.2 	1
122.4 	1
122.6 	1
122.8 	1
123 	1
123.2 	1
123.4 	1
123.6 	1
123.8 	1
124 	1
124.2 	1
124.4 	1
124.6 	1
124.8 	1
125 	1
125.2 	1
125.4 	1
125.6 	1
125.8 	1
126 	1
126.2 	1
126.4 	1
126.6 	1
126.8 	1
127 	1
127.2 	1
127.4 	1
127.6 	1
127.8 	1
128 	1
128.2 	1
128.4 	1
128.6 	1
128.8 	1
129 	1
129.2 	1
129.4 	1
129.6 	1
129.8 	1
130 	1
130.2 	1
130.4 	1
130.6 	1
130.8 	1
131 	1
131.2 	1
131.4 	1
131.6 	1
131.8 	1
132 	1
132.2 	1
132.4 	1
132.6 	1
132.8 	1
133 	1
133.2 	1
133.4 	1
133.6 	1
133.8 	1
134 	1
134.2 	1
134.4 	1
134.6 	1
134.8 	1
135 	1
135.2 	1
135.4 	1
135.6 	1
135.8 	1
136 	1
136.2 	1
136.4 	1
136.6 	1
136.8 	1
137 	1
137.2 	1
137.4 	1
137.6 	1
137.8 	1
138 	1
138.2 	1
138.4 	1
138.6 	1
138.8 	1
139 	1
139.2 	1
139.4 	1
139.6 	1
139.8 	1
140 	1
140.2 	1
140.4 	1
140.6 	1
140.8 	1
141 	1
141.2 	1
141.4 	1
141.6 	1
141.8 	1
142 	1
142.2 	1
142.4 	1
142.6 	1
142.8 	1
143 	1
143.2 	1
143.4 	1
143.6 	1
143.8 	1
144 	1
144.2 	1
144.4 	1
144.6 	1
144.8 	1
145 	1
145.2 	1
145.4 	1
145.6 	1
145.8 	1
146 	1
146.2 	1
146.4 	1
146.6 	1
146.8 	1
147 	1
147.2 	1
147.4 	1
147.6 	1
147.8 	1
148 	1
148.2 	1
148.4 	1
148.6 	1
148.8 	1
149 	1
149.2 	1
149.4 	1
149.6 	1
149.8 	1
150 	1
150.2 	1
150.4 	1
150.6 	1
150.8 	1
151 	1
151.2 	1
151.4 	1
151.6 	1
151.8 	1
152 	1
152.2 	1
152.4 	1
152.6 	1
152.8 	1
153 	1
153.2 	1
153.4 	1
153.6 	1
153.8 	1
154 	1
154.2 	1
154.4 	1
154.6 	1
154.8 	1
155 	1
155.2 	1
155.4 	1
155.6 	1
155.8 	1
156 	1
156.2 	1
156.4 	1
156.6 	1
156.8 	1
157 	1
157.2 	1
157.4 	1
157.6 	1
157.8 	1
158 	1
158.2 	1
158.4 	1
158.6 	1
158.8 	1
159 	1
159.2 	1
159.4 	1
159.6 	1
159.8 	1
160 	1
160.2 	1
160.4 	1
160.6 	1
160.8 	1
161 	1
161.2 	1
161.4 	1
161.6 	1
161.8 	1
162 	1
162.2 	1
162.4 	1
162.6 	1
162.8 	1
163 	1
163.2 	1
163.4 	1
163.6 	1
163.8 	1
164 	1
164.2 	1
164.4 	1
164.6 	1
164.8 	1
165 	1
165.2 	1
165.4 	1
165.6 	1
165.8 	1
166 	1
166.2 	1
166.4 	1
166.6 	1
166.8 	1
167 	1
167.2 	1
167.4 	1
167.6 	1
167.8 	1
168 	1
168.2 	1
168.4 	1
168.6 	1
168.8 	1
169 	1
169.2 	1
169.4 	1
169.6 	1
169.8 	1
170 	1
170.2 	1
170.4 	1
170.6 	1
170.8 	1
171 	1
171.2 	1
171.4 	1
171.6 	1
171.8 	1
172 	1
172.2 	1
172.4 	1
172.6 	1
172.8 	1
173 	1
173.2 	1
173.4 	1
173.6 	1
173.8 	1
174 	1
174.2 	1
174.4 	1
174.6 	1
174.8 	1
175 	1
175.2 	1
175.4 	1
175.6 	1
175.8 	1
176 	1
176.2 	1
176.4 	1
176.6 	1
176.8 	1
177 	1
177.2 	1
177.4 	1
177.6 	1
177.8 	1
178 	1
178.2 	1
178.4 	1
178.6 	1
178.8 	1
179 	1
179.2 	1
179.4 	1
179.6 	1
179.8 	1
180 	1
180.2 	1
180.4 	1
180.6 	1
180.8 	1
181 	1
181.2 	1
181.4 	1
181.6 	1
181.8 	1
182 	1
182.2 	1
182.4 	1
182.6 	1
182.8 	1
183 	1
183.2 	1
183.4 	1
183.6 	1
183.8 	1
184 	1
184.2 	1
184.4 	1
184.6 	1
184.8 	1
185 	1
185.2 	1
185.4 	1
185.6 	1
185.8 	1
186 	1
186.2 	1
186.4 	1
186.6 	1
186.8 	1
187 	1
187.2 	1
187.4 	1
187.6 	1
187.8 	1
188 	1
188.2 	1
188.4 	1
188.6 	1
188.8 	1
189 	1
189.2 	1
189.4 	1
189.6 	1
189.8 	1
190 	1
190.2 	1
190.4 	1
190.6 	1
190.8 	1
191 	1
191.2 	1
191.4 	1
191.6 	1
191.8 	1
192 	1
192.2 	1
192.4 	1
192.6 	1
192.8 	1
193 	1
193.2 	1
193.4 	1
193.6 	1
193.8 	1
194 	1
194.2 	1
194.4 	1
194.6 	1
194.8 	1
195 	1
195.2 	1
195.4 	1
195.6 	1
195.8 	1
196 	1
196.2 	1
196.4 	1
196.6 	1
196.8 	1
197 	1
197.2 	1
197.4 	1
197.6 	1
197.8 	1
198 	1
198.2 	1
198.4 	1
198.6 	1
198.8 	1
199 	1
199.2 	1
199.4 	1
199.6 	1
199.8 	1
200 	1
200.2 	1
200.4 	1
200.6 	1
200.8 	1
201 	1
201.2 	1
201.4 	1
201.6 	1
201.8 	1
202 	1
202.2 	1
202.4 	1
202.6 	1
202.8 	1
203 	1
203.2 	1
203.4 	1
203.6 	1
203.8 	1
204 	1
204.2 	1
204.4 	1
204.6 	1
204.8 	1
205 	1
205.2 	1
205.4 	1
205.6 	1
205.8 	1
206 	1
206.2 	1
206.4 	1
206.6 	1
206.8 	1
207 	1
207.2 	1
207.4 	1
207.6 	1
207.8 	1
208 	1
208.2 	1
208.4 	1
208.6 	1
208.8 	1
209 	1
209.2 	1
209.4 	1
209.6 	1
209.8 	1
210 	1
210.2 	1
210.4 	1
210.6 	1
210.8 	1
211 	1
211.2 	1
211.4 	1
211.6 	1
211.8 	1
212 	1
212.2 	1
212.4 	1
212.6 	1
212.8 	1
213 	1
213.2 	1
213.4 	1
213.6 	1
213.8 	1
214 	1
214.2 	1
214.4 	1
214.6 	1
214.8 	1
215 	1
215.2 	1
215.4 	1
215.6 	1
215.8 	1
216 	1
216.2 	1
216.4 	1
216.6 	1
216.8 	1
217 	1
217.2 	1
217.4 	1
217.6 	1
217.8 	1
218 	1
218.2 	1
218.4 	1
218.6 	1
218.8 	1
219 	1
219.2 	1
219.4 	1
219.6 	1
219.8 	1
220 	1
220.2 	1
220.4 	1
220.6 	1
220.8 	1
221 	1
221.2 	1
221.4 	1
221.6 	1
221.8 	1
222 	1
222.2 	1
222.4 	1
222.6 	1
222.8 	1
223 	1
223.2 	1
223.4 	1
223.6 	1
223.8 	1
224 	1
224.2 	1
224.4 	1
224.6 	1
224.8 	1
225 	1
225.2 	1
225.4 	1
225.6 	1
225.8 	1
226 	1
226.2 	1
226.4 	1
226.6 	1
226.8 	1
227 	1
227.2 	1
227.4 	1
227.6 	1
227.8 	1
228 	1
228.2 	1
228.4 	1
228.6 	1
228.8 	1
229 	1
229.2 	1
229.4 	1
229.6 	1
229.8 	1
230 	1
230.2 	1
230.4 	1
230.6 	1
230.8 	1
231 	1
231.2 	1
231.4 	1
231.6 	1
231.8 	1
232 	1
232.2 	1
232.4 	1
232.6 	1
232.8 	1
233 	1
233.2 	1
233.4 	1
233.6 	1
233.8 	1
234 	1
234.2 	1
234.4 	1
234.6 	1
234.8 	1
235 	1
235.2 	1
235.4 	1
235.6 	1
235.8 	1
236 	1
236.2 	1
236.4 	1
236.6 	1
236.8 	1
237 	1
237.2 	1
237.4 	1
237.6 	1
237.8 	1
238 	1
238.2 	1
238.4 	1
238.6 	1
238.8 	1
239 	1
239.2 	1
239.4 	1
239.6 	1
239.8 	1
240 	1
240.2 	1
240.4 	1
240.6 	1
240.8 	1
241 	1
241.2 	1
241.4 	1
241.6 	1
241.8 	1
242 	1
242.2 	1
242.4 	1
242.6 	1
242.8 	1
243 	1
243.2 	1
243.4 	1
243.6 	1
243.8 	1
244 	1
244.2 	1
244.4 	1
244.6 	1
244.8 	1
245 	1
245.2 	1
245.4 	1
245.6 	1
245.8 	1
246 	1
246.2 	1
246.4 	1
246.6 	1
246.8 	1
247 	1
247.2 	1
247.4 	1
247.6 	1
247.8 	1
248 	1
248.2 	1
248.4 	1
248.6 	1
248.8 	1
249 	1
249.2 	1
249.4 	1
249.6 	1
249.8 	1
250 	1
250.2 	1
250.4 	1
250.6 	1
250.8 	1
251 	1
251.2 	1
251.4 	1
251.6 	1
251.8 	1
252 	1
252.2 	1
252.4 	1
252.6 	1
252.8 	1
253 	1
253.2 	1
253.4 	1
253.6 	1
253.8 	1
254 	1
254.2 	1
254.4 	1
254.6 	1
254.8 	1
255 	1
255.2 	1
255.4 	1
255.6 	1
255.8 	1
256 	1
256.2 	1
256.4 	1
256.6 	1
256.8 	1
257 	1
257.2 	1
257.4 	1
257.6 	1
257.8 	1
258 	1
258.2 	1
258.4 	1
258.6 	1
258.8 	1
259 	1
259.2 	1
259.4 	1
259.6 	1
259.8 	1
260 	1
260.2 	1
260.4 	1
260.6 	1
260.8 	1
261 	1
261.2 	1
261.4 	1
261.6 	1
261.8 	1
262 	1
262.2 	1
262.4 	1
262.6 	1
262.8 	1
263 	1
263.2 	1
263.4 	1
263.6 	1
263.8 	1
264 	1
264.2 	1
264.4 	1
264.6 	1
264.8 	1
265 	1
265.2 	1
265.4 	1
265.6 	1
265.8 	1
266 	1
266.2 	1
266.4 	1
266.6 	1
266.8 	1
267 	1
267.2 	1
267.4 	1
267.6 	1
267.8 	1
268 	1
268.2 	1
268.4 	1
268.6 	1
268.8 	1
269 	1
269.2 	1
269.4 	1
269.6 	1
269.8 	1
270 	1
270.2 	1
270.4 	1
270.6 	1
270.8 	1
271 	1
271.2 	1
271.4 	1
271.6 	1
271.8 	1
272 	1
272.2 	1
272.4 	1
272.6 	1
272.8 	1
273 	1
273.2 	1
273.4 	1
273.6 	1
273.8 	1
274 	1
274.2 	1
274.4 	1
274.6 	1
274.8 	1
275 	1
275.2 	1
275.4 	1
275.6 	1
275.8 	1
276 	1
276.2 	1
276.4 	1
276.6 	1
276.8 	1
277 	1
277.2 	1
277.4 	1
277.6 	1
277.8 	1
278 	1
278.2 	1
278.4 	1
278.6 	1
278.8 	1
279 	1
279.2 	1
279.4 	1
279.6 	1
279.8 	1
280 	1
280.2 	1
280.4 	1
280.6 	1
280.8 	1
281 	1
281.2 	1
281.4 	1
281.6 	1
281.8 	1
282 	1
282.2 	1
282.4 	1
282.6 	1
282.8 	1
283 	1
283.2 	1
283.4 	1
283.6 	1
283.8 	1
284 	1
284.2 	1
284.4 	1
284.6 	1
284.8 	1
285 	1
285.2 	1
285.4 	1
285.6 	1
285.8 	1
286 	1
286.2 	1
286.4 	1
286.6 	1
286.8 	1
287 	1
287.2 	1
287.4 	1
287.6 	1
287.8 	1
288 	1
288.2 	1
288.4 	1
288.6 	1
288.8 	1
289 	1
289.2 	1
289.4 	1
289.6 	1
289.8 	1
290 	1
290.2 	1
290.4 	1
290.6 	1
290.8 	1
291 	1
291.2 	1
291.4 	1
291.6 	1
291.8 	1
292 	1
292.2 	1
292.4 	1
292.6 	1
292.8 	1
293 	1
293.2 	1
293.4 	1
293.6 	1
293.8 	1
294 	1
294.2 	1
294.4 	1
294.6 	1
294.8 	1
295 	1
295.2 	1
295.4 	1
295.6 	1
295.8 	1
296 	1
296.2 	1
296.4 	1
296.6 	1
296.8 	1
297 	1
297.2 	1
297.4 	1
297.6 	1
297.8 	1
298 	1
298.2 	1
298.4 	1
298.6 	1
298.8 	1
299 	1
299.2 	1
299.4 	1
299.6 	1
299.8 	1
300 	1
300.2 	1
300.4 	1
300.6 	1
300.8 	1
301 	1
301.2 	1
301.4 	1
301.6 	1
301.8 	1
302 	1
302.2 	1
302.4 	1
302.6 	1
302.8 	1
303 	1
303.2 	1
303.4 	1
303.6 	1
303.8 	1
304 	1
304.2 	1
304.4 	1
304.6 	1
304.8 	1
305 	1
305.2 	1
305.4 	1
305.6 	1
305.8 	1
306 	1
306.2 	1
306.4 	1
306.6 	1
306.8 	1
307 	1
307.2 	1
307.4 	1
307.6 	1
307.8 	1
308 	1
308.2 	1
308.4 	1
308.6 	1
308.8 	1
309 	1
309.2 	1
309.4 	1
309.6 	1
309.8 	1
310 	1
310.2 	1
310.4 	1
310.6 	1
310.8 	1
311 	1
311.2 	1
311.4 	1
311.6 	1
311.8 	1
312 	1
312.2 	1
312.4 	1
312.6 	1
312.8 	1
313 	1
313.2 	1
313.4 	1
313.6 	1
313.8 	1
314 	1
314.2 	1
314.4 	1
314.6 	1
314.8 	1
315 	1
315.2 	1
315.4 	1
315.6 	1
315.8 	1
316 	1
316.2 	1
316.4 	1
316.6 	1
316.8 	1
317 	1
317.2 	1
317.4 	1
317.6 	1
317.8 	1
318 	1
318.2 	1
318.4 	1
318.6 	1
318.8 	1
319 	1
319.2 	1
319.4 	1
319.6 	1
319.8 	1
320 	1
320.2 	1
320.4 	1
320.6 	1
320.8 	1
321 	1
321.2 	1
321.4 	1
321.6 	1
321.8 	1
322 	1
322.2 	1
322.4 	1
322.6 	1
322.8 	1
323 	1
323.2 	1
323.4 	1
323.6 	1
323.8 	1
324 	1
324.2 	1
324.4 	1
324.6 	1
324.8 	1
325 	1
325.2 	1
325.4 	1
325.6 	1
325.8 	1
326 	1
326.2 	1
326.4 	1
326.6 	1
326.8 	1
327 	1
327.2 	1
327.4 	1
327.6 	1
327.8 	1
328 	1
328.2 	1
328.4 	1
328.6 	1
328.8 	1
329 	1
329.2 	1
329.4 	1
329.6 	1
329.8 	1
330 	1
330.2 	1
330.4 	1
330.6 	1
330.8 	1
331 	1
331.2 	1
331.4 	1
331.6 	1
331.8 	1
332 	1
332.2 	1
332.4 	1
332.6 	1
332.8 	1
333 	1
333.2 	1
333.4 	1
333.6 	1
333.8 	1
334 	1
334.2 	1
334.4 	1
334.6 	1
334.8 	1
335 	1
335.2 	1
335.4 	1
335.6 	1
335.8 	1
336 	1
336.2 	1
336.4 	1
336.6 	1
336.8 	1
337 	1
337.2 	1
337.4 	1
337.6 	1
337.8 	1
338 	1
338.2 	1
338.4 	1
338.6 	1
338.8 	1
339 	1
339.2 	1
339.4 	1
339.6 	1
339.8 	1
340 	1
340.2 	1
340.4 	1
340.6 	1
340.8 	1
341 	1
341.2 	1
341.4 	1
341.6 	1
341.8 	1
342 	1
342.2 	1
342.4 	1
342.6 	1
342.8 	1
343 	1
343.2 	1
343.4 	1
343.6 	1
343.8 	1
344 	1
344.2 	1
344.4 	1
344.6 	1
344.8 	1
345 	1
345.2 	1
345.4 	1
345.6 	1
345.8 	1
346 	1
346.2 	1
346.4 	1
346.6 	1
346.8 	1
347 	1
347.2 	1
347.4 	1
347.6 	1
347.8 	1
348 	1
348.2 	1
348.4 	1
348.6 	1
348.8 	1
349 	1
349.2 	1
349.4 	1
349.6 	1
349.8 	1
350 	1
350.2 	1
350.4 	1
350.6 	1
350.8 	1
351 	1
351.2 	1
351.4 	1
351.6 	1
351.8 	1
352 	1
352.2 	1
352.4 	1
352.6 	1
352.8 	1
353 	1
353.2 	1
353.4 	1
353.6 	1
353.8 	1
354 	1
354.2 	1
354.4 	1
354.6 	1
354.8 	1
355 	1
355.2 	1
355.4 	1
355.6 	1
355.8 	1
356 	1
356.2 	1
356.4 	1
356.6 	1
356.8 	1
357 	1
357.2 	1
357.4 	1
357.6 	1
357.8 	1
358 	1
358.2 	1
358.4 	1
358.6 	1
358.8 	1
359 	1
359.2 	1
359.4 	1
359.6 	1
359.8 	1
360 	1
360.2 	1
360.4 	1
360.6 	1
360.8 	1
361 	1
361.2 	1
361.4 	1
361.6 	1
361.8 	1
362 	1
362.2 	1
362.4 	1
362.6 	1
362.8 	1
363 	1
363.2 	1
363.4 	1
363.6 	1
363.8 	1
364 	1
364.2 	1
364.4 	1
364.6 	1
364.8 	1
365 	1
365.2 	1
365.4 	1
365.6 	1
365.8 	1
366 	1
366.2 	1
366.4 	1
366.6 	1
366.8 	1
367 	1
367.2 	1
367.4 	1
367.6 	1
367.8 	1
368 	1
368.2 	1
368.4 	1
368.6 	1
368.8 	1
369 	1
369.2 	1
369.4 	1
369.6 	1
369.8 	1
370 	1
370.2 	1
370.4 	1
370.6 	1
370.8 	1
371 	1
371.2 	1
371.4 	1
371.6 	1
371.8 	1
372 	1
372.2 	1
372.4 	1
372.6 	1
372.8 	1
373 	1
373.2 	1
373.4 	1
373.6 	1
373.8 	1
374 	1
374.2 	1
374.4 	1
374.6 	1
374.8 	1
375 	1
375.2 	1
375.4 	1
375.6 	1
375.8 	1
376 	1
376.2 	1
376.4 	1
376.6 	1
376.8 	1
377 	1
377.2 	1
377.4 	1
377.6 	1
377.8 	1
378 	1
378.2 	1
378.4 	1
378.6 	1
378.8 	1
379 	1
379.2 	1
379.4 	1
379.6 	1
379.8 	1
380 	1
380.2 	1
380.4 	1
380.6 	1
380.8 	1
381 	1
381.2 	1
381.4 	1
381.6 	1
381.8 	1
382 	1
382.2 	1
382.4 	1
382.6 	1
382.8 	1
383 	1
383.2 	1
383.4 	1
383.6 	1
383.8 	1
384 	1
384.2 	1
384.4 	1
384.6 	1
384.8 	1
385 	1
385.2 	1
385.4 	1
385.6 	1
385.8 	1
386 	1
386.2 	1
386.4 	1
386.6 	1
386.8 	1
387 	1
387.2 	1
387.4 	1
387.6 	1
387.8 	1
388 	1
388.2 	1
388.4 	1
388.6 	1
388.8 	1
389 	1
389.2 	1
389.4 	1
389.6 	1
389.8 	1
390 	1
390.2 	1
390.4 	1
390.6 	1
390.8 	1
391 	1
391.2 	1
391.4 	1
391.6 	1
391.8 	1
392 	1
392.2 	1
392.4 	1
392.6 	1
392.8 	1
393 	1
393.2 	1
393.4 	1
393.6 	1
393.8 	1
394 	1
394.2 	1
394.4 	1
394.6 	1
394.8 	1
395 	1
395.2 	1
395.4 	1
395.6 	1
395.8 	1
396 	1
396.2 	1
396.4 	1
396.6 	1
396.8 	1
397 	1
397.2 	1
397.4 	1
397.6 	1
397.8 	1
398 	1
398.2 	1
398.4 	1
398.6 	1
398.8 	1
399 	1
399.2 	1
399.4 	1
399.6 	1
399.8 	1
400 	1
400.2 	1
400.4 	1
400.6 	1
400.8 	1
401 	1
401.2 	1
401.4 	1
401.6 	1
401.8 	1
402 	1
402.2 	1
402.4 	1
402.6 	1
402.8 	1
403 	1
403.2 	1
403.4 	1
403.6 	1
403.8 	1
404 	1
404.2 	1
404.4 	1
404.6 	1
404.8 	1
405 	1
405.2 	1
405.4 	1
405.6 	1
405.8 	1
406 	1
406.2 	1
406.4 	1
406.6 	1
406.8 	1
407 	1
407.2 	1
407.4 	1
407.6 	1
407.8 	1
408 	1
408.2 	1
408.4 	1
408.6 	1
408.8 	1
409 	1
409.2 	1
409.4 	1
409.6 	1
409.8 	1
410 	1
410.2 	1
410.4 	1
410.6 	1
410.8 	1
411 	1
411.2 	1
411.4 	1
411.6 	1
411.8 	1
412 	1
412.2 	1
412.4 	1
412.6 	1
412.8 	1
413 	1
413.2 	1
413.4 	1
413.6 	1
413.8 	1
414 	1
414.2 	1
414.4 	1
414.6 	1
414.8 	1
415 	1
415.2 	1
415.4 	1
415.6 	1
415.8 	1
416 	1
416.2 	1
416.4 	1
416.6 	1
416.8 	1
417 	1
417.2 	1
417.4 	1
417.6 	1
417.8 	1
418 	1
418.2 	1
418.4 	1
418.6 	1
418.8 	1
419 	1
419.2 	1
419.4 	1
419.6 	1
419.8 	1
420 	1
420.2 	1
420.4 	1
420.6 	1
420.8 	1
421 	1
421.2 	1
421.4 	1
421.6 	1
421.8 	1
422 	1
422.2 	1
422.4 	1
422.6 	1
422.8 	1
423 	1
423.2 	1
423.4 	1
423.6 	1
423.8 	1
424 	1
424.2 	1
424.4 	1
424.6 	1
424.8 	1
425 	1
425.2 	1
425.4 	1
425.6 	1
425.8 	1
426 	1
426.2 	1
426.4 	1
426.6 	1
426.8 	1
427 	1
427.2 	1
427.4 	1
427.6 	1
427.8 	1
428 	1
428.2 	1
428.4 	1
428.6 	1
428.8 	1
429 	1
429.2 	1
429.4 	1
429.6 	1
429.8 	1
430 	1
430.2 	1
430.4 	1
430.6 	1
430.8 	1
431 	1
431.2 	1
431.4 	1
431.6 	1
431.8 	1
432 	1
432.2 	1
432.4 	1
432.6 	1
432.8 	1
433 	1
433.2 	1
433.4 	1
433.6 	1
433.8 	1
434 	1
434.2 	1
434.4 	1
434.6 	1
434.8 	1
435 	1
435.2 	1
435.4 	1
435.6 	1
435.8 	1
436 	1
436.2 	1
436.4 	1
436.6 	1
436.8 	1
437 	1
437.2 	1
437.4 	1
437.6 	1
437.8 	1
438 	1
438.2 	1
438.4 	1
438.6 	1
438.8 	1
439 	1
439.2 	1
439.4 	1
439.6 	1
439.8 	1
440 	1
440.2 	1
440.4 	1
440.6 	1
440.8 	1
441 	1
441.2 	1
441.4 	1
441.6 	1
441.8 	1
442 	1
442.2 	1
442.4 	1
442.6 	1
442.8 	1
443 	1
443.2 	1
443.4 	1
443.6 	1
443.8 	1
444 	1
444.2 	1
444.4 	1
444.6 	1
444.8 	1
445 	1
445.2 	1
445.4 	1
445.6 	1
445.8 	1
446 	1
446.2 	1
446.4 	1
446.6 	1
446.8 	1
447 	1
447.2 	1
447.4 	1
447.6 	1
447.8 	1
448 	1
448.2 	1
448.4 	1
448.6 	1
448.8 	1
449 	1
449.2 	1
449.4 	1
449.6 	1
449.8 	1
450 	1
450.2 	1
450.4 	1
450.6 	1
450.8 	1
451 	1
451.2 	1
451.4 	1
451.6 	1
451.8 	1
452 	1
452.2 	1
452.4 	1
452.6 	1
452.8 	1
453 	1
453.2 	1
453.4 	1
453.6 	1
453.8 	1
454 	1
454.2 	1
454.4 	1
454.6 	1
454.8 	1
455 	1
455.2 	1
455.4 	1
455.6 	1
455.8 	1
456 	1
456.2 	1
456.4 	1
456.6 	1
456.8 	1
457 	1
457.2 	1
457.4 	1
457.6 	1
457.8 	1
458 	1
458.2 	1
458.4 	1
458.6 	1
458.8 	1
459 	1
459.2 	1
459.4 	1
459.6 	1
459.8 	1
460 	1
460.2 	1
460.4 	1
460.6 	1
460.8 	1
461 	1
461.2 	1
461.4 	1
461.6 	1
461.8 	1
462 	1
462.2 	1
462.4 	1
462.6 	1
462.8 	1
463 	1
463.2 	1
463.4 	1
463.6 	1
463.8 	1
464 	1
464.2 	1
464.4 	1
464.6 	1
464.8 	1
465 	1
465.2 	1
465.4 	1
465.6 	1
465.8 	1
466 	1
466.2 	1
466.4 	1
466.6 	1
466.8 	1
467 	1
467.2 	1
467.4 	1
467.6 	1
467.8 	1
468 	1
468.2 	1
468.4 	1
468.6 	1
468.8 	1
469 	1
469.2 	1
469.4 	1
469.6 	1
469.8 	1
470 	1
470.2 	1
470.4 	1
470.6 	1
470.8 	1
471 	1
471.2 	1
471.4 	1
471.6 	1
471.8 	1
472 	1
472.2 	1
472.4 	1
472.6 	1
472.8 	1
473 	1
473.2 	1
473.4 	1
473.6 	1
473.8 	1
474 	1
474.2 	1
474.4 	1
474.6 	1
474.8 	1
475 	1
475.2 	1
475.4 	1
475.6 	1
475.8 	1
476 	1
476.2 	1
476.4 	1
476.6 	1
476.8 	1
477 	1
477.2 	1
477.4 	1
477.6 	1
477.8 	1
478 	1
478.2 	1
478.4 	1
478.6 	1
478.8 	1
479 	1
479.2 	1
479.4 	1
479.6 	1
479.8 	1
480 	1
480.2 	1
480.4 	1
480.6 	1
480.8 	1
481 	1
481.2 	1
481.4 	1
481.6 	1
481.8 	1
482 	1
482.2 	1
482.4 	1
482.6 	1
482.8 	1
483 	1
483.2 	1
483.4 	1
483.6 	1
483.8 	1
484 	1
484.2 	1
484.4 	1
484.6 	1
484.8 	1
485 	1
485.2 	1
485.4 	1
485.6 	1
485.8 	1
486 	1
486.2 	1
486.4 	1
486.6 	1
486.8 	1
487 	1
487.2 	1
487.4 	1
487.6 	1
487.8 	1
488 	1
488.2 	1
488.4 	1
488.6 	1
488.8 	1
489 	1
489.2 	1
489.4 	1
489.6 	1
489.8 	1
490 	1
490.2 	1
490.4 	1
490.6 	1
490.8 	1
491 	1
491.2 	1
491.4 	1
491.6 	1
491.8 	1
492 	1
492.2 	1
492.4 	1
492.6 	1
492.8 	1
493 	1
493.2 	1
493.4 	1
493.6 	1
493.8 	1
494 	1
494.2 	1
494.4 	1
494.6 	1
494.8 	1
495 	1
495.2 	1
495.4 	1
495.6 	1
495.8 	1
496 	1
496.2 	1
496.4 	1
496.6 	1
496.8 	1
497 	1
497.2 	1
497.4 	1
497.6 	1
497.8 	1
498 	1
498.2 	1
498.4 	1
498.6 	1
498.8 	1
499 	1
499.2 	1
499.4 	1
499.6 	1
499.8 	1
500 	1
